<?xml version="1.0" encoding="UTF-8" standalone="no"?>
<svg width="16px" height="17px" viewBox="0 0 16 17" version="1.1" xmlns="http://www.w3.org/2000/svg" xmlns:xlink="http://www.w3.org/1999/xlink">
    <!-- Generator: Sketch 41.2 (35397) - http://www.bohemiancoding.com/sketch -->
    <title>electronics</title>
    <desc>Created with Sketch.</desc>
    <defs></defs>
    <g id="Page-1" stroke="none" stroke-width="1" fill="none" fill-rule="evenodd">
        <g id="icons" transform="translate(-833.000000, -307.000000)">
            <g id="electronics" transform="translate(833.000000, 308.000000)">
                <rect id="Rectangle-5" stroke="#83CBB4" stroke-width="1.32299988" x="0.666666667" y="0" width="14.6666667" height="11.7391304" rx="0.661499941"></rect>
                <rect id="Rectangle-5" stroke="#83CBB4" stroke-width="1.32299988" x="6" y="11.7391304" width="4" height="2.60869565"></rect>
                <rect id="Rectangle-6-Copy-2" fill="#83CBB4" x="0" y="8.47826087" width="16" height="1.30434783"></rect>
                <rect id="Rectangle-6-Copy" fill="#83CBB4" x="4" y="13.6956522" width="8" height="1.30434783" rx="0.652173913"></rect>
            </g>
        </g>
    </g>
</svg>