<?xml version="1.0" encoding="UTF-8" standalone="no"?>
<svg width="15px" height="15px" viewBox="0 0 15 15" version="1.1" xmlns="http://www.w3.org/2000/svg" xmlns:xlink="http://www.w3.org/1999/xlink">
    <!-- Generator: Sketch 41.2 (35397) - http://www.bohemiancoding.com/sketch -->
    <title>home</title>
    <desc>Created with Sketch.</desc>
    <defs></defs>
    <g id="Page-1" stroke="none" stroke-width="1" fill="none" fill-rule="evenodd">
        <g id="icons" transform="translate(-833.000000, -452.000000)" fill="#83CBB4">
            <g id="home" transform="translate(833.000000, 452.000000)">
                <path d="M11.9994,13.5 L9.74951252,13.5 L9.74951252,10.5 L5.24973751,10.5 L5.24973751,13.5 L2.99985001,13.5 L2.99985001,6.60975 L7.49212539,2.11725 L11.9994,6.624 L11.9994,13.5 Z M13.499325,6.003 L13.499325,6 L13.499325,6 L7.50112494,0 L0,7.494 L1.05819709,8.5545 L1.499925,8.10975 L1.499925,15 L6.74966252,15 L6.74966252,12 L8.24958752,12 L8.24958752,15 L13.499325,15 L13.499325,14.99775 L13.499325,8.124 L13.9380531,8.562 L15,7.5015 L13.499325,6.003 Z" id="home-[#1391]"></path>
            </g>
        </g>
    </g>
</svg>