<?xml version="1.0" encoding="UTF-8"?>
<svg width="478px" height="25px" viewBox="0 0 478 25" version="1.1" xmlns="http://www.w3.org/2000/svg" xmlns:xlink="http://www.w3.org/1999/xlink">
    <!-- Generator: Sketch 41.2 (35397) - http://www.bohemiancoding.com/sketch -->
    <title>Group 5</title>
    <desc>Created with Sketch.</desc>
    <defs>
        <linearGradient x1="50%" y1="0%" x2="50%" y2="100%" id="linearGradient-1">
            <stop stop-color="#83CBB4" offset="0%"></stop>
            <stop stop-color="#52B1B1" offset="100%"></stop>
        </linearGradient>
    </defs>
    <g id="Page-1" stroke="none" stroke-width="1" fill="none" fill-rule="evenodd">
        <g id="Desktop-HD" transform="translate(-480.000000, -238.000000)">
            <g id="Group-5" transform="translate(480.000000, 238.000000)">
                <g id="white-logo" transform="translate(0.000000, 2.000000)">
                    <g id="Group-2">
                        <g id="Group-11">
                            <g id="Group-6">
                                <path d="M35.099287,22.1984326 L35.099287,0.654576515 C35.099287,0.470750758 34.9496263,0.321773485 34.7649574,0.321773485 L30.4519305,0.321773485 C30.2672615,0.321773485 30.1176009,0.470750758 30.1176009,0.654576515 L30.1176009,22.1984326 C30.1176009,22.3822583 30.2672615,22.5312356 30.4519305,22.5312356 L34.7649574,22.5312356 C34.9496263,22.5312356 35.099287,22.3822583 35.099287,22.1984326 M44.9681367,22.1984326 L44.9681367,0.654576515 C44.9681367,0.470750758 44.8184761,0.321773485 44.6338071,0.321773485 L40.3207802,0.321773485 C40.1361112,0.321773485 39.9864506,0.470750758 39.9864506,0.654576515 L39.9864506,22.1984326 C39.9864506,22.3822583 40.1361112,22.5312356 40.3207802,22.5312356 L44.6338071,22.5312356 C44.8184761,22.5312356 44.9681367,22.3822583 44.9681367,22.1984326 M66.250754,11.6640841 L66.250754,16.9634932 C66.250754,17.0896447 66.1798621,17.2062129 66.0664351,17.2621447 C64.6965589,17.9390765 63.1983772,18.3748568 61.9312505,18.3748568 C58.0215196,18.3748568 54.9631915,15.3608114 54.9631915,11.4264174 C54.9631915,7.52390985 57.9900121,4.50986439 61.899743,4.50986439 C63.9335523,4.50986439 66.0809636,5.36626591 67.695723,6.7544553 C67.8387321,6.87729621 68.0573591,6.85185682 68.1734118,6.70340227 L70.5634308,3.64997803 C70.6731819,3.50971288 70.6544525,3.30637197 70.5172198,3.19259167 C68.2838631,1.3437053 65.062396,0.163038636 61.899743,0.163038636 C55.0262065,0.163038636 49.8553003,5.01743258 49.8553003,11.4264174 C49.8553003,17.8672886 54.9315089,22.7533947 61.6160005,22.7533947 C64.6142894,22.7533947 68.0977938,21.6250008 70.4317995,19.9662129 C70.5196704,19.9038341 70.5704325,19.802425 70.5704325,19.6950917 L70.5704325,11.6640841 C70.5704325,11.4802583 70.4205968,11.3312811 70.2361029,11.3312811 L66.5850836,11.3312811 C66.4004146,11.3312811 66.250754,11.4802583 66.250754,11.6640841 M80.5033919,17.6613341 L80.5033919,0.495841667 C80.5033919,0.312015909 80.3537313,0.163038636 80.1690623,0.163038636 L75.8560354,0.163038636 C75.6713665,0.163038636 75.5217058,0.312015909 75.5217058,0.495841667 L75.5217058,22.0396977 C75.5217058,22.2236977 75.6713665,22.372675 75.8560354,22.372675 L89.6279645,22.372675 C89.8126334,22.372675 89.9622941,22.2236977 89.9622941,22.0396977 L89.9622941,18.3269402 C89.9622941,18.1431144 89.8126334,17.9941371 89.6279645,17.9941371 L80.8377215,17.9941371 C80.6530526,17.9941371 80.5033919,17.8451598 80.5033919,17.6613341 M111.478515,3.98661439 L111.478515,0.495841667 C111.478515,0.312015909 111.328855,0.163038636 111.144186,0.163038636 L95.0074437,0.163038636 C94.8227747,0.163038636 94.6731141,0.312015909 94.6731141,0.495841667 L94.6731141,22.0396977 C94.6731141,22.2236977 94.8227747,22.372675 95.0074437,22.372675 L111.490943,22.372675 C111.675612,22.372675 111.825273,22.2236977 111.825273,22.0396977 L111.825273,18.5490992 C111.825273,18.3652735 111.675612,18.2162962 111.490943,18.2162962 L99.9891298,18.2162962 C99.8044608,18.2162962 99.6548002,18.0673189 99.6548002,17.8834932 L99.6548002,13.6312811 C99.6548002,13.4474553 99.8044608,13.298478 99.9891298,13.298478 L109.977533,13.298478 C110.162202,13.298478 110.311863,13.1495008 110.311863,12.965675 L110.311863,9.47490227 C110.311863,9.29107652 110.162202,9.14209924 109.977533,9.14209924 L99.9891298,9.14209924 C99.8044608,9.14209924 99.6548002,8.99312197 99.6548002,8.80929621 L99.6548002,4.65222045 C99.6548002,4.4683947 99.8044608,4.31941742 99.9891298,4.31941742 L111.144186,4.31941742 C111.328855,4.31941742 111.478515,4.17044015 111.478515,3.98661439" id="Fill-1" fill="#FFFFFF"></path>
                                <path d="M12.1453718,13.5834167 C12.2644001,13.846 12.3802777,14.1127652 12.4931796,14.3833636 C12.5647716,14.5549924 12.8105301,14.553947 12.8807218,14.3817955 C12.994849,14.1012652 13.1121269,13.8250909 13.2323806,13.5529242 C13.4210755,13.1262045 13.6228985,12.7198712 13.8374996,12.3334015 L19.5643382,1.1142803 C19.6663875,0.921393939 19.7714125,0.771371212 19.8783629,0.664734848 C19.9858385,0.558098485 20.105392,0.479340909 20.2384237,0.428462121 C20.3709302,0.377757576 20.5214661,0.347265152 20.6900312,0.336984848 C20.8584213,0.32705303 21.0548181,0.321651515 21.2795716,0.321651515 L25.0202122,0.321651515 C25.1362648,0.321651515 25.2304372,0.415393939 25.2304372,0.530916667 L25.2304372,22.3220227 C25.2304372,22.4375455 25.1362648,22.5312879 25.0202122,22.5312879 L20.8773258,22.5312879 C20.7610981,22.5312879 20.6671007,22.4375455 20.6671007,22.3220227 L20.6671007,9.75740152 C20.6671007,9.43470455 20.6753277,9.09824242 20.6919567,8.74801515 C20.7026342,8.52289394 20.3991119,8.44047727 20.2954873,8.64085606 L14.8481903,19.1624848 C14.6643965,19.5182879 14.4167126,19.7874924 14.1053134,19.970447 C13.7940893,20.1532273 13.4391048,20.2447045 13.04106,20.2447045 L12.3368673,20.2447045 C11.9386475,20.2447045 11.5838381,20.1532273 11.2724389,19.970447 C10.9610398,19.7874924 10.7133558,19.5182879 10.529562,19.1624848 L5.07578852,8.66856061 C4.9711136,8.46696212 4.66601596,8.55234091 4.67949417,8.77885606 C4.67966921,8.78234091 4.68001929,8.786 4.68019433,8.78948485 C4.70049917,9.14006061 4.71065158,9.46275758 4.71065158,9.75740152 L4.71065158,22.3220227 C4.71065158,22.4375455 4.6166542,22.5312879 4.50060157,22.5312879 L0.357540129,22.5312879 C0.241487497,22.5312879 0.147315075,22.4375455 0.147315075,22.3220227 L0.147315075,0.530916667 C0.147315075,0.415393939 0.241487497,0.321651515 0.357540129,0.321651515 L4.09818076,0.321651515 C4.32258419,0.321651515 4.51933103,0.32705303 4.68772112,0.336984848 C4.85628626,0.347265152 5.0068221,0.377757576 5.13950369,0.428462121 C5.27201024,0.479340909 5.39191379,0.558098485 5.49938938,0.664734848 C5.60668993,0.771371212 5.71101477,0.921393939 5.81341415,1.1142803 L11.5558314,12.3792273 C11.75993,12.7655227 11.9563267,13.1669773 12.1453718,13.5834167" id="Fill-10" fill="#FFFFFF"></path>
                                <path d="M134.35729,13.2633516 C134.658385,13.2633516 134.902471,13.0160397 134.902471,12.7205072 L134.902471,9.65386774 C134.902471,9.35406305 134.655196,9.11102333 134.35729,9.11102333 L128.499874,9.11102333 C128.198779,9.11102333 127.954693,8.8647174 127.954693,8.56797961 L127.954693,2.73351992 C127.954693,2.43360515 127.71754,2.19047619 127.401046,2.19047619 L124.526574,2.19047619 C124.220803,2.19047619 123.972926,2.43678213 123.972926,2.73351992 L123.972926,8.56797961 C123.972926,8.86789438 123.725651,9.11102333 123.427746,9.11102333 L117.570329,9.11102333 C117.269234,9.11102333 117.025149,9.35833527 117.025149,9.65386774 L117.025149,12.7205072 C117.025149,13.0203119 117.272424,13.2633516 117.570329,13.2633516 L123.427746,13.2633516 C123.728841,13.2633516 123.972926,13.5082087 123.972926,13.803201 L123.972926,19.6033403 C123.972926,19.9014909 124.210079,20.1431897 124.526574,20.1431897 L127.401046,20.1431897 C127.706817,20.1431897 127.954693,19.8983326 127.954693,19.6033403 L127.954693,13.803201 C127.954693,13.5050504 128.201968,13.2633516 128.499874,13.2633516 L134.35729,13.2633516 Z" id="Path" fill="url(#linearGradient-1)"></path>
                            </g>
                        </g>
                    </g>
                </g>
                <rect id="Rectangle-2" fill="#FFFFFF" x="163" y="1" width="1" height="24"></rect>
                <path d="M197.166565,1.25 L205.52594,21.28125 L205.61969,21.28125 L214.010315,1.25 L216.479065,1.25 L216.479065,24 L214.61969,24 L214.61969,13.953125 L214.77594,4 L214.68219,3.96875 L206.229065,24 L204.93219,24 L196.49469,4.0625 L196.40094,4.078125 L196.572815,13.953125 L196.572815,24 L194.71344,24 L194.71344,1.25 L197.166565,1.25 Z M241.367814,17.65625 L230.945939,17.65625 L228.602189,24 L226.664689,24 L235.305314,1.25 L237.070939,1.25 L245.649064,24 L243.711564,24 L241.367814,17.65625 Z M231.570939,15.984375 L240.758439,15.984375 L236.227189,3.671875 L236.133439,3.671875 L231.570939,15.984375 Z M257.365939,13.71875 L257.365939,24 L255.506564,24 L255.506564,1.265625 L263.209689,1.265625 C265.647201,1.265625 267.516974,1.79947383 268.819064,2.8671875 C270.121154,3.93490117 270.772189,5.49478141 270.772189,7.546875 C270.772189,8.75521438 270.423234,9.83593273 269.725314,10.7890625 C269.027394,11.7421923 268.043029,12.4374978 266.772189,12.875 C268.178446,13.2291684 269.191457,13.8619746 269.811251,14.7734375 C270.431046,15.6849004 270.740939,16.8281181 270.740939,18.203125 L270.740939,20.34375 C270.740939,21.0520869 270.824271,21.6874972 270.990939,22.25 C271.157606,22.8125028 271.433645,23.2708316 271.819064,23.625 L271.819064,24 L269.912814,24 C269.527395,23.6249981 269.256565,23.0989617 269.100314,22.421875 C268.944063,21.7447883 268.865939,21.0416703 268.865939,20.3125 L268.865939,18.234375 C268.865939,16.8385347 268.415423,15.7369832 267.514376,14.9296875 C266.61333,14.1223918 265.35553,13.71875 263.740939,13.71875 L257.365939,13.71875 Z M257.365939,12.125 L262.975314,12.125 C265.027407,12.125 266.527392,11.7109416 267.475314,10.8828125 C268.423235,10.0546834 268.897189,8.93750703 268.897189,7.53125 C268.897189,6.0312425 268.425839,4.8776082 267.483126,4.0703125 C266.540413,3.2630168 265.115948,2.859375 263.209689,2.859375 L257.365939,2.859375 L257.365939,12.125 Z M288.020314,13.296875 L284.895314,13.296875 L284.895314,24 L283.035939,24 L283.035939,1.25 L284.895314,1.25 L284.895314,11.71875 L288.004689,11.71875 L296.957814,1.25 L299.067189,1.25 L299.098439,1.328125 L289.692189,12.4375 L299.770314,23.921875 L299.739064,24 L297.520314,24 L288.020314,13.296875 Z M322.705938,12.984375 L311.752813,12.984375 L311.752813,22.421875 L324.299688,22.421875 L324.299688,24 L309.893438,24 L309.893438,1.25 L324.221563,1.25 L324.221563,2.84375 L311.752813,2.84375 L311.752813,11.390625 L322.705938,11.390625 L322.705938,12.984375 Z M350.313438,2.84375 L342.485313,2.84375 L342.485313,24 L340.610313,24 L340.610313,2.84375 L332.782188,2.84375 L332.782188,1.25 L350.313438,1.25 L350.313438,2.84375 Z M362.295937,14.546875 L362.295937,24 L360.436562,24 L360.436562,1.25 L368.264687,1.25 C370.650116,1.25 372.496452,1.85676477 373.80375,3.0703125 C375.111048,4.28386023 375.764687,5.890615 375.764687,7.890625 C375.764687,9.91146844 375.111048,11.5260356 373.80375,12.734375 C372.496452,13.9427144 370.650116,14.546875 368.264687,14.546875 L362.295937,14.546875 Z M362.295937,12.953125 L368.264687,12.953125 C370.139697,12.953125 371.548537,12.4765673 372.49125,11.5234375 C373.433963,10.5703077 373.905312,9.36979891 373.905312,7.921875 C373.905312,6.46353438 373.436567,5.25260898 372.499062,4.2890625 C371.561558,3.32551602 370.150113,2.84375 368.264687,2.84375 L362.295937,2.84375 L362.295937,12.953125 Z M388.528437,22.421875 L399.778437,22.421875 L399.778437,24 L386.653437,24 L386.653437,1.25 L388.528437,1.25 L388.528437,22.421875 Z M422.448436,17.65625 L412.026561,17.65625 L409.682811,24 L407.745311,24 L416.385936,1.25 L418.151561,1.25 L426.729686,24 L424.792186,24 L422.448436,17.65625 Z M412.651561,15.984375 L421.839061,15.984375 L417.307811,3.671875 L417.214061,3.671875 L412.651561,15.984375 Z M452.134061,16.890625 L452.165311,16.984375 C451.967393,19.2656364 451.154902,21.0598893 449.727811,22.3671875 C448.300721,23.6744857 446.389281,24.328125 443.993436,24.328125 C441.462173,24.328125 439.420527,23.4140716 437.868436,21.5859375 C436.316345,19.7578034 435.540311,17.3906395 435.540311,14.484375 L435.540311,10.78125 C435.540311,7.88540219 436.316345,5.51823836 437.868436,3.6796875 C439.420527,1.84113664 441.462173,0.921875 443.993436,0.921875 C446.410115,0.921875 448.326762,1.56249359 449.743436,2.84375 C451.16011,4.12500641 451.967393,5.92707172 452.165311,8.25 L452.134061,8.34375 L450.384061,8.34375 C450.13406,6.45832391 449.485629,5.01563 448.438749,4.015625 C447.391868,3.01562 445.910112,2.515625 443.993436,2.515625 C442.003843,2.515625 440.407505,3.28645063 439.204374,4.828125 C438.001243,6.36979937 437.399686,8.34373797 437.399686,10.75 L437.399686,14.484375 C437.399686,16.9218872 438.001243,18.9088465 439.204374,20.4453125 C440.407505,21.9817785 442.003843,22.75 443.993436,22.75 C445.910112,22.75 447.394473,22.2604216 448.446561,21.28125 C449.49865,20.3020784 450.144477,18.8385514 450.384061,16.890625 L452.134061,16.890625 Z M476.210311,12.984375 L465.257186,12.984375 L465.257186,22.421875 L477.804061,22.421875 L477.804061,24 L463.397811,24 L463.397811,1.25 L477.725936,1.25 L477.725936,2.84375 L465.257186,2.84375 L465.257186,11.390625 L476.210311,11.390625 L476.210311,12.984375 Z" id="MARKETPLACE" fill="#FFFFFF"></path>
            </g>
        </g>
    </g>
</svg>